{
 "allow_roles": [
  {
   "role": "Manufacturing Manager"
  },
  {
   "role": "Stock Manager"
  },
  {
   "role": "Manufacturing User"
  },
  {
   "role": "Stock User"
  }
 ],
 "creation": "2020-05-15 03:18:44.400108",
 "docstatus": 0,
 "doctype": "Module Onboarding",
 "documentation_url": "https://doc.dokos.io/dokos/stock/",
 "idx": 0,
 "is_complete": 0,
 "modified": "2020-06-29 16:41:09.440378",
 "modified_by": "Administrator",
 "module": "Stock",
 "name": "Stock",
 "owner": "Administrator",
 "steps": [
  {
    "step": "Stock Settings"
},
{
 "step": "Create a Warehouse"
},
{
 "step": "Create a Stock Entry"
},
{
 "step": "Stock Opening Balance"
},
{
 "step": "View Stock Projected Qty"
}
 ],
 "subtitle": "Inventory, Warehouses, Analysis and more.",
 "success_message": "The Stock Module is all set up!",
 "title": "Let's Setup the Stock Module."
}
