{
    "actions": [],
    "creation": "2013-08-02 13:45:23",
    "doctype": "DocType",
    "document_type": "Other",
    "editable_grid": 1,
    "engine": "InnoDB",
    "field_order": [
     "employee_settings",
     "retirement_age",
     "emp_created_by",
     "column_break_4",
     "standard_working_hours",
     "expense_approver_mandatory_in_expense_claim",
     "reminders_section",
     "send_birthday_reminders",
     "column_break_9",
     "send_work_anniversary_reminders",
     "column_break_11",
     "send_holiday_reminders",
     "frequency",
     "leave_settings",
     "send_leave_notification",
     "leave_approval_notification_template",
     "leave_status_notification_template",
     "role_allowed_to_create_backdated_leave_application",
     "column_break_18",
     "leave_approver_mandatory_in_leave_application",
     "show_leaves_of_all_department_members_in_calendar",
     "auto_leave_encashment",
     "restrict_backdated_leave_application",
     "hiring_settings",
     "check_vacancies"
    ],
    "fields": [
     {
      "fieldname": "employee_settings",
      "fieldtype": "Section Break",
      "label": "Employee Settings"
     },
     {
      "description": "Enter retirement age in years",
      "fieldname": "retirement_age",
      "fieldtype": "Data",
      "label": "Retirement Age"
     },
     {
      "default": "Naming Series",
      "description": "Employee records are created using the selected field",
      "fieldname": "emp_created_by",
      "fieldtype": "Select",
      "label": "Employee Records to be created by",
      "options": "Naming Series\nEmployee Number\nFull Name"
     },
     {
      "fieldname": "column_break_4",
      "fieldtype": "Column Break"
     },
     {
      "default": "1",
      "fieldname": "expense_approver_mandatory_in_expense_claim",
      "fieldtype": "Check",
      "label": "Expense Approver Mandatory In Expense Claim"
     },
     {
      "collapsible": 1,
      "fieldname": "leave_settings",
      "fieldtype": "Section Break",
      "label": "Leave Settings"
     },
     {
      "depends_on": "eval: doc.send_leave_notification == 1",
      "fieldname": "leave_approval_notification_template",
      "fieldtype": "Link",
      "label": "Leave Approval Notification Template",
      "mandatory_depends_on": "eval: doc.send_leave_notification == 1",
      "options": "Email Template"
     },
     {
      "depends_on": "eval: doc.send_leave_notification == 1",
      "fieldname": "leave_status_notification_template",
      "fieldtype": "Link",
      "label": "Leave Status Notification Template",
      "mandatory_depends_on": "eval: doc.send_leave_notification == 1",
      "options": "Email Template"
     },
     {
      "fieldname": "column_break_18",
      "fieldtype": "Column Break"
     },
     {
      "default": "1",
      "fieldname": "leave_approver_mandatory_in_leave_application",
      "fieldtype": "Check",
      "label": "Leave Approver Mandatory In Leave Application"
     },
     {
      "default": "0",
      "fieldname": "show_leaves_of_all_department_members_in_calendar",
      "fieldtype": "Check",
      "label": "Show Leaves Of All Department Members In Calendar"
     },
     {
      "collapsible": 1,
      "fieldname": "hiring_settings",
      "fieldtype": "Section Break",
      "label": "Hiring Settings"
     },
     {
      "default": "0",
      "fieldname": "check_vacancies",
      "fieldtype": "Check",
      "label": "Check Vacancies On Job Offer Creation"
     },
     {
      "default": "0",
      "fieldname": "auto_leave_encashment",
      "fieldtype": "Check",
      "label": "Auto Leave Encashment"
     },
     {
      "default": "0",
      "fieldname": "restrict_backdated_leave_application",
      "fieldtype": "Check",
      "label": "Restrict Backdated Leave Application"
     },
     {
      "depends_on": "eval:doc.restrict_backdated_leave_application == 1",
      "fieldname": "role_allowed_to_create_backdated_leave_application",
      "fieldtype": "Link",
      "label": "Role Allowed to Create Backdated Leave Application",
      "options": "Role"
     },
      {
       "default": "1",
       "fieldname": "send_leave_notification",
       "fieldtype": "Check",
       "label": "Send Leave Notification"
      },
      {
       "fieldname": "standard_working_hours",
       "fieldtype": "Int",
       "label": "Standard Working Hours"
      },
      {
       "collapsible": 1,
       "fieldname": "reminders_section",
       "fieldtype": "Section Break",
       "label": "Reminders"
      },
      {
       "default": "1",
       "fieldname": "send_holiday_reminders",
       "fieldtype": "Check",
       "label": "Holidays"
      },
      {
       "default": "1",
       "fieldname": "send_work_anniversary_reminders",
       "fieldtype": "Check",
       "label": "Work Anniversaries "
      },
      {
       "default": "Weekly",
       "depends_on": "eval:doc.send_holiday_reminders",
       "fieldname": "frequency",
       "fieldtype": "Select",
       "label": "Set the frequency for holiday reminders",
       "options": "Weekly\nMonthly"
      },
      {
       "default": "1",
       "fieldname": "send_birthday_reminders",
       "fieldtype": "Check",
       "label": "Birthdays"
      },
      {
       "fieldname": "column_break_9",
       "fieldtype": "Column Break"
      },
      {
       "fieldname": "column_break_11",
       "fieldtype": "Column Break"
     }
    ],
    "icon": "fa fa-cog",
    "idx": 1,
    "issingle": 1,
    "links": [],
    "modified": "2021-08-24 14:54:12.834162",
    "modified_by": "Administrator",
    "module": "HR",
    "name": "HR Settings",
    "owner": "Administrator",
    "permissions": [
     {
      "create": 1,
      "email": 1,
      "print": 1,
      "read": 1,
      "role": "System Manager",
      "share": 1,
      "write": 1
     }
    ],
    "sort_field": "modified",
    "sort_order": "ASC",
    "track_changes": 1
   }
